[gd_scene load_steps=6 format=2]

[ext_resource path="res://Menu.tscn" type="PackedScene" id=1]
[ext_resource path="res://GUI.tscn" type="PackedScene" id=2]
[ext_resource path="res://GameWheel.tscn" type="PackedScene" id=3]
[ext_resource path="res://GameSlot.tscn" type="PackedScene" id=4]
[ext_resource path="res://Main.gd" type="Script" id=6]

[node name="Main" type="Node"]
script = ExtResource( 6 )

[node name="GameSlot" parent="." instance=ExtResource( 4 )]

[node name="GameWheel" parent="." instance=ExtResource( 3 )]

[node name="GUI" parent="." instance=ExtResource( 2 )]

[node name="Menu" parent="." instance=ExtResource( 1 )]
